%YAML 1.1
%TAG !u! tag:unity3d.com,2011:
--- !u!1001 &8353267678540536623
PrefabInstance:
  m_ObjectHideFlags: 0
  serializedVersion: 2
  m_Modification:
    m_TransformParent: {fileID: 0}
    m_Modifications:
    - target: {fileID: -8905427676664266775, guid: 847ef8a6e67ec9f4cab999d7ec4bd8ff, type: 3}
      propertyPath: _sound
      value: 
      objectReference: {fileID: 8300000, guid: ce28d281f4c94e24baa28b7407d498ba, type: 3}
    - target: {fileID: -8905427676664266775, guid: 847ef8a6e67ec9f4cab999d7ec4bd8ff, type: 3}
      propertyPath: volume
      value: 0.25
      objectReference: {fileID: 0}
    - target: {fileID: -7509430305143610172, guid: 847ef8a6e67ec9f4cab999d7ec4bd8ff, type: 3}
      propertyPath: _hp
      value: 2.5
      objectReference: {fileID: 0}
    - target: {fileID: -7509430305143610172, guid: 847ef8a6e67ec9f4cab999d7ec4bd8ff, type: 3}
      propertyPath: _score
      value: 12
      objectReference: {fileID: 0}
    - target: {fileID: -7509430305143610172, guid: 847ef8a6e67ec9f4cab999d7ec4bd8ff, type: 3}
      propertyPath: _sound
      value: 
      objectReference: {fileID: 8300000, guid: ce28d281f4c94e24baa28b7407d498ba, type: 3}
    - target: {fileID: -5966627061545591405, guid: 847ef8a6e67ec9f4cab999d7ec4bd8ff, type: 3}
      propertyPath: m_audioClip
      value: 
      objectReference: {fileID: 8300000, guid: ce28d281f4c94e24baa28b7407d498ba, type: 3}
    - target: {fileID: 5439695861228769849, guid: 847ef8a6e67ec9f4cab999d7ec4bd8ff, type: 3}
      propertyPath: m_Name
      value: Tank Variant
      objectReference: {fileID: 0}
    - target: {fileID: 5439695861228769851, guid: 847ef8a6e67ec9f4cab999d7ec4bd8ff, type: 3}
      propertyPath: m_Drag
      value: 1
      objectReference: {fileID: 0}
    - target: {fileID: 5439695861228769853, guid: 847ef8a6e67ec9f4cab999d7ec4bd8ff, type: 3}
      propertyPath: m_Materials.Array.data[0]
      value: 
      objectReference: {fileID: 2100000, guid: cf27de42eed196540955d8064e5b26d3, type: 2}
    - target: {fileID: 5439695861228769855, guid: 847ef8a6e67ec9f4cab999d7ec4bd8ff, type: 3}
      propertyPath: m_RootOrder
      value: 0
      objectReference: {fileID: 0}
    - target: {fileID: 5439695861228769855, guid: 847ef8a6e67ec9f4cab999d7ec4bd8ff, type: 3}
      propertyPath: m_LocalPosition.x
      value: -1
      objectReference: {fileID: 0}
    - target: {fileID: 5439695861228769855, guid: 847ef8a6e67ec9f4cab999d7ec4bd8ff, type: 3}
      propertyPath: m_LocalPosition.y
      value: 0.5
      objectReference: {fileID: 0}
    - target: {fileID: 5439695861228769855, guid: 847ef8a6e67ec9f4cab999d7ec4bd8ff, type: 3}
      propertyPath: m_LocalPosition.z
      value: 0
      objectReference: {fileID: 0}
    - target: {fileID: 5439695861228769855, guid: 847ef8a6e67ec9f4cab999d7ec4bd8ff, type: 3}
      propertyPath: m_LocalRotation.w
      value: 1
      objectReference: {fileID: 0}
    - target: {fileID: 5439695861228769855, guid: 847ef8a6e67ec9f4cab999d7ec4bd8ff, type: 3}
      propertyPath: m_LocalRotation.x
      value: -0
      objectReference: {fileID: 0}
    - target: {fileID: 5439695861228769855, guid: 847ef8a6e67ec9f4cab999d7ec4bd8ff, type: 3}
      propertyPath: m_LocalRotation.y
      value: -0
      objectReference: {fileID: 0}
    - target: {fileID: 5439695861228769855, guid: 847ef8a6e67ec9f4cab999d7ec4bd8ff, type: 3}
      propertyPath: m_LocalRotation.z
      value: -0
      objectReference: {fileID: 0}
    - target: {fileID: 5439695861228769855, guid: 847ef8a6e67ec9f4cab999d7ec4bd8ff, type: 3}
      propertyPath: m_LocalEulerAnglesHint.x
      value: 0
      objectReference: {fileID: 0}
    - target: {fileID: 5439695861228769855, guid: 847ef8a6e67ec9f4cab999d7ec4bd8ff, type: 3}
      propertyPath: m_LocalEulerAnglesHint.y
      value: 0
      objectReference: {fileID: 0}
    - target: {fileID: 5439695861228769855, guid: 847ef8a6e67ec9f4cab999d7ec4bd8ff, type: 3}
      propertyPath: m_LocalEulerAnglesHint.z
      value: 0
      objectReference: {fileID: 0}
    - target: {fileID: 5774064399998893811, guid: 847ef8a6e67ec9f4cab999d7ec4bd8ff, type: 3}
      propertyPath: _speed
      value: 1
      objectReference: {fileID: 0}
    m_RemovedComponents: []
  m_SourcePrefab: {fileID: 100100000, guid: 847ef8a6e67ec9f4cab999d7ec4bd8ff, type: 3}
